Other Datasets
…
data <- merge(life, databoth, by="Country")

Exploring Our Data

Lets make this longer and more graphable

data %>%
  select(-c("Country")) %>%
  arrange(desc(Happiness)) %>%
  pivot_longer(cols = c("LifeExpectancy", "GDPperCapita", "Happiness", 
                        "EconomyContr", "HealthContr"),
               names_to = "Category",
               values_to = "Score")

## # A tibble: 670 x 2
##    Category           Score
##    <chr>              <dbl>
##  1 LifeExpectancy    80.7  
##  2 GDPperCapita   25269.   
##  3 Happiness          7.59 
##  4 EconomyContr       1.32 
##  5 HealthContr        0.938
##  6 LifeExpectancy    79.3  
##  7 GDPperCapita   33067.   
##  8 Happiness          7.56 
##  9 EconomyContr       1.35 
## 10 HealthContr        0.935
## #  with 660 more rows
…
